[
    {
      "name": "first_name",
      "type": "STRING",
      "mode": "NULLABLE"
    },
    {
      "name": "last_name",
      "type": "STRING",
      "mode": "NULLABLE"
    },
    {
      "name": "age",
      "type": "INT64",
      "mode": "NULLABLE"
    }
  ]
  